%YAML 1.1
%TAG !u! tag:unity3d.com,2011:
--- !u!1045 &1
EditorBuildSettings:
  m_ObjectHideFlags: 0
  serializedVersion: 2
  m_Scenes:
  - enabled: 1
    path: Assets/Scenes/MenuInicial.unity
    guid: 3e675c875b3d9c94b876687679c95482
  - enabled: 1
    path: Assets/Scenes/Jogo.unity
    guid: 9fc0d4010bbf28b4594072e72b8655ab
  - enabled: 1
    path: Assets/Scenes/BanheiroScene.unity
    guid: 8d589ab21a999fc4b96e147e9429c108
  - enabled: 0
    path: 
    guid: 00000000000000000000000000000000
  - enabled: 1
    path: Assets/Scenes/QuartoScene.unity
    guid: 78dddfe8bfd6b4a40a485ccd7e852adb
  m_configObjects: {}
